%YAML 1.1
%TAG !u! tag:unity3d.com,2011:
--- !u!114 &11400000
MonoBehaviour:
  m_ObjectHideFlags: 0
  m_PrefabParentObject: {fileID: 0}
  m_PrefabInternal: {fileID: 0}
  m_GameObject: {fileID: 0}
  m_Enabled: 1
  m_EditorHideFlags: 0
  m_Script: {fileID: 11500000, guid: 9f3758f8f58fdef43803eb9be1df0608, type: 3}
  m_Name: PhotonServerSettings
  m_EditorClassIdentifier: 
  HostType: 1
  Protocol: 0
  ServerAddress: 
  ServerPort: 5055
  PreferredRegion: 0
  AppID: c6278ed8-6f1a-4f1f-8e84-18af118f1ebf
  PingCloudServersOnAwake: 0
  RpcList:
  - addHealthRPC
  - Chat
  - deductHealthRPC
  - DestroyRpc
  - InstantiateRpc
  - Marco
  - OnAwakeRPC
  - PickupItemInit
  - Polo
  - PunPickup
  - PunPickupSimple
  - PunRespawn
  - RequestForPickupTimes
  - SetPosition
  - SpawnShark
  - TaggedPlayer
  - UpdateOtherPlayerCounter
  - SinkCrateRPC
  - AddHealthRPC
  - DeductHealthRPC
  DisableAutoOpenWizard: 0
